[
  {
    "name": "Sky Venture",
    "key": "skyventure",
    "color": "#67B7DC"
  },
  {
    "name": "iFly",
    "key": "ifly",
    "color": "#CC4748"
  },
  {
    "name": "Some company",
    "key": "somecompany",
    "color": "orange"
  }
]
